<svg width="20" height="20" viewBox="0 0 20 20" fill="none" xmlns="http://www.w3.org/2000/svg">
<path id="Vector" d="M4.06006 18.9084C4.08188 19.2019 4.22489 19.4784 4.46239 19.6863C4.5784 19.7887 4.71701 19.8692 4.86976 19.9231C5.0225 19.977 5.18618 20.003 5.35081 19.9997H10.1343C10.6162 19.9992 11.0962 19.9465 11.5634 19.843L15.1335 19.1007C15.4781 19.0557 15.7898 18.8965 16.0042 18.6562C16.2235 18.4184 16.3419 18.1215 16.3392 17.816V12.3051C16.3491 12.0913 16.297 11.8788 16.1878 11.6874C16.0787 11.4961 15.916 11.3319 15.7148 11.2104L10.1787 7.69095C9.90158 7.53303 9.56749 7.47048 9.24082 7.51537C9.07281 7.53048 8.91037 7.57663 8.76422 7.65077C8.61808 7.7249 8.49155 7.82534 8.393 7.94544C8.29103 8.06415 8.21849 8.20019 8.18002 8.34486C8.14156 8.48953 8.13801 8.63965 8.16963 8.78558C8.19533 8.93505 8.2562 9.07822 8.3484 9.20601C8.4406 9.3338 8.56211 9.44342 8.70523 9.52793L10.0899 10.3881H2.54468C2.37806 10.3852 2.21265 10.4135 2.05947 10.471C1.90629 10.5285 1.76884 10.6139 1.65627 10.7215C1.42418 10.9308 1.28859 11.2079 1.27551 11.4994C1.26848 11.6457 1.29904 11.7915 1.36494 11.9262C1.43083 12.0608 1.53038 12.1808 1.65627 12.2773C1.90612 12.4928 2.24344 12.6127 2.59417 12.6107H8.17853V12.8452H1.29583C1.12539 12.8431 0.956273 12.8716 0.798899 12.929C0.641526 12.9863 0.499222 13.0712 0.380752 13.1786C0.260219 13.2787 0.164288 13.3994 0.0988219 13.5332C0.0333558 13.6669 -0.000269657 13.8109 1.62852e-06 13.9565C-0.000195436 14.1019 0.0334637 14.246 0.0989254 14.3798C0.164387 14.5135 0.260279 14.6341 0.380752 14.7344C0.499222 14.8417 0.641526 14.9266 0.798899 14.984C0.956273 15.0413 1.12539 15.0698 1.29583 15.0678H8.17091V15.3023H2.50027C2.17414 15.3018 1.86112 15.4145 1.62962 15.6156C1.50685 15.7143 1.40943 15.8347 1.34379 15.9688C1.27815 16.1028 1.2458 16.2476 1.24886 16.3935C1.24645 16.5428 1.27899 16.6909 1.34448 16.8287C1.40995 16.9665 1.50701 17.0911 1.62962 17.1948C1.74794 17.3023 1.89022 17.3873 2.04763 17.4446C2.20504 17.502 2.37422 17.5304 2.54468 17.5282H8.17091V17.7627H5.40284C5.22539 17.7578 5.04867 17.7849 4.88364 17.8422C4.71861 17.8996 4.56876 17.9859 4.44335 18.0961C4.31858 18.2007 4.22006 18.3271 4.15407 18.4669C4.08809 18.6068 4.05607 18.7572 4.06006 18.9084ZM7.3599 10.0747L5.70998 8.27661C5.50683 8.03501 5.41857 7.73386 5.46376 7.43646C5.50326 7.14498 5.67134 6.87857 5.93209 6.69412C6.06122 6.59833 6.2124 6.52801 6.37533 6.48793C6.53827 6.44785 6.70915 6.43896 6.87636 6.46186C7.05073 6.48056 7.21911 6.52951 7.37165 6.60583C7.52419 6.68215 7.65783 6.78432 7.76477 6.90638L8.34478 7.57315C8.1587 7.70604 8.0126 7.87679 7.91924 8.07052C7.82588 8.26423 7.78809 8.47501 7.80919 8.68445C7.8165 8.8971 7.88098 9.10525 7.99742 9.29197C8.11385 9.47869 8.27896 9.63873 8.47932 9.75908L8.97048 10.0714L7.3599 10.0747ZM19.9932 9.9969C20.0175 10.2081 19.9764 10.4211 19.8741 10.6136C19.7718 10.806 19.6122 10.9708 19.4119 11.0904L16.6959 12.9674V12.3006C16.7078 12.0361 16.6398 11.7735 16.4988 11.5394C16.3576 11.3052 16.1486 11.1078 15.8925 10.9671L10.4059 7.45647C10.1456 7.27632 9.82261 7.17982 9.49085 7.18309C9.15245 7.18236 8.8204 7.2635 8.53134 7.41757L6.20623 4.79491C6.10354 4.6801 6.02873 4.54813 5.98639 4.4071C5.94405 4.26607 5.93508 4.11895 5.96001 3.97477C5.97868 3.8252 6.03184 3.68051 6.11627 3.54946C6.20069 3.41842 6.31464 3.30375 6.45119 3.21242C6.58005 3.11837 6.72992 3.04893 6.89122 3.00856C7.05252 2.96817 7.22166 2.95775 7.38782 2.97793C7.55407 2.9953 7.71402 3.04403 7.85667 3.12078C7.99931 3.19753 8.12125 3.30044 8.21405 3.42245L11.6954 7.292L11.8743 7.1742L7.67847 2.4534C7.56459 2.33571 7.47994 2.19856 7.4299 2.05066C7.37986 1.90277 7.36554 1.74737 7.38782 1.59436C7.40502 1.44723 7.45769 1.30497 7.54236 1.177C7.62704 1.04903 7.74178 0.938255 7.879 0.852014C8.01093 0.763391 8.16171 0.698684 8.32254 0.661667C8.48336 0.62465 8.65099 0.616066 8.81564 0.636422C8.97794 0.652109 9.13488 0.696557 9.27691 0.767055C9.41896 0.837554 9.54314 0.932628 9.64186 1.04649L13.8834 5.81508L14.1068 5.65839L10.6699 1.82774C10.556 1.71005 10.4714 1.57289 10.4213 1.425C10.3713 1.27711 10.357 1.12171 10.3793 0.968701C10.3964 0.82157 10.4491 0.679314 10.5338 0.55134C10.6185 0.423367 10.7332 0.312594 10.8704 0.226354C11.0024 0.13773 11.1531 0.0730227 11.314 0.0360058C11.4748 -0.00101115 11.6424 -0.00959543 11.8071 0.010761C12.1455 0.0477571 12.4559 0.193983 12.6777 0.42083L17.2759 5.61949L17.2315 4.13368C17.2138 3.98659 17.2348 3.83791 17.2929 3.69903C17.351 3.56014 17.4446 3.43474 17.5665 3.33244C17.7998 3.11928 18.1181 2.99342 18.4549 2.98127C18.6222 2.97403 18.7894 2.99627 18.9465 3.04667C19.1037 3.09706 19.2477 3.17459 19.37 3.27465C19.4986 3.37028 19.6013 3.48962 19.6708 3.62412C19.7404 3.75861 19.775 3.90493 19.7723 4.05256L19.9932 9.9969Z" fill="white"/>
</svg>
