<svg width="24" height="24" viewBox="0 0 24 24" fill="none" xmlns="http://www.w3.org/2000/svg">
<path d="M10.9395 4.06077H3.93945C3.40902 4.06077 2.90031 4.27149 2.52524 4.64656C2.15017 5.02163 1.93945 5.53034 1.93945 6.06077V20.0608C1.93945 20.5912 2.15017 21.0999 2.52524 21.475C2.90031 21.8501 3.40902 22.0608 3.93945 22.0608H17.9395C18.4699 22.0608 18.9786 21.8501 19.3537 21.475C19.7287 21.0999 19.9395 20.5912 19.9395 20.0608V13.0608M18.4395 2.56077C18.8373 2.16295 19.3768 1.93945 19.9395 1.93945C20.5021 1.93945 21.0416 2.16295 21.4395 2.56077C21.8373 2.9586 22.0608 3.49816 22.0608 4.06077C22.0608 4.62338 21.8373 5.16295 21.4395 5.56077L11.9395 15.0608L7.93945 16.0608L8.93945 12.0608L18.4395 2.56077Z" stroke="#535360" stroke-width="2" stroke-linecap="round" stroke-linejoin="round"/>
</svg>
